C:\Revathi\Focus_Training\Micro_Docker_Final\Spring_Boot_Webinar_CustomerForm_Comsumer\src\main\java\com\hcl\webinar\controller\CustomerController.java
C:\Revathi\Focus_Training\Micro_Docker_Final\Spring_Boot_Webinar_CustomerForm_Comsumer\src\main\java\com\hcl\webinar\model\Login.java
C:\Revathi\Focus_Training\Micro_Docker_Final\Spring_Boot_Webinar_CustomerForm_Comsumer\src\main\java\com\hcl\webinar\controller\LoginController.java
C:\Revathi\Focus_Training\Micro_Docker_Final\Spring_Boot_Webinar_CustomerForm_Comsumer\src\main\java\com\hcl\webinar\model\Customer.java
C:\Revathi\Focus_Training\Micro_Docker_Final\Spring_Boot_Webinar_CustomerForm_Comsumer\src\main\java\com\hcl\webinar\SpringBootHibernateApplication.java
C:\Revathi\Focus_Training\Micro_Docker_Final\Spring_Boot_Webinar_CustomerForm_Comsumer\src\main\java\com\hcl\webinar\service\CustomerService.java
